(footprint "DecaWave_DWM1001" (version 20211014) (generator pcbnew)
  (layer "F.Cu")
  (tedit 5AE22EC1)
  (descr "https://www.decawave.com/sites/default/files/dwm1001_datasheet.pdf")
  (tags "UWB module")
  (attr smd)
  (fp_text reference "REF**" (at 0 9.955) (layer "F.SilkS")
    (effects (font (size 1 1) (thickness 0.15)))
    (tstamp ebfebb50-4bb0-4d4c-bf7e-30d8832a8640)
  )
  (fp_text value "DecaWave_DWM1001" (at 0 -18.045) (layer "F.Fab")
    (effects (font (size 1 1) (thickness 0.15)))
    (tstamp ac684169-b868-411d-ba43-a94b5bea7be1)
  )
  (fp_text user "No bare Cu" (at -5.665 8.12) (layer "Cmts.User")
    (effects (font (size 0.15 0.15) (thickness 0.0225)))
    (tstamp 25b85bb2-4421-4626-b3ea-81b276933681)
  )
  (fp_text user "KEEP-OUT ZONE" (at 0 -13) (layer "Cmts.User")
    (effects (font (size 1 1) (thickness 0.15)))
    (tstamp c647f8a4-1dfa-4a6c-9199-3891006bbfd7)
  )
  (fp_text user "No bare Cu" (at 5.645 -8.18) (layer "Cmts.User")
    (effects (font (size 0.15 0.15) (thickness 0.0225)))
    (tstamp daf54d8d-4442-46dc-94e9-666df1462ce1)
  )
  (fp_text user "No components, traces, or copper on any layer" (at 0 -11.5) (layer "Cmts.User")
    (effects (font (size 0.5 0.5) (thickness 0.075)))
    (tstamp fa7f6e3a-0478-4963-b877-2f6cb5fd4ed4)
  )
  (fp_text user "${REFERENCE}" (at 0 0) (layer "F.Fab")
    (effects (font (size 1 1) (thickness 0.15)))
    (tstamp 6dd40d6a-1be4-472f-9c4d-9bd3aea73ef4)
  )
  (fp_line (start -11 -7.8) (end -11 -8.46) (layer "F.SilkS") (width 0.12) (tstamp 00c6934d-9718-42d4-b07b-3845aa8ffe94))
  (fp_line (start -9.685 8.46) (end -9.685 9.14) (layer "F.SilkS") (width 0.12) (tstamp 355926d1-a255-4a11-9539-de73058bc9a8))
  (fp_line (start 9.685 9.14) (end -9.685 9.14) (layer "F.SilkS") (width 0.12) (tstamp 8dc3922c-8642-43c8-a649-d798db54118f))
  (fp_line (start 9.685 8.46) (end 9.685 9.14) (layer "F.SilkS") (width 0.12) (tstamp f382907b-8b5e-464b-a455-1ba2911a0218))
  (fp_line (start -4.915 7.82) (end -6.415 7.82) (layer "Dwgs.User") (width 0.1) (tstamp 03471381-d482-44ea-b603-a4f43e54207a))
  (fp_line (start -14.025 -8.65) (end -5.565 -17.11) (layer "Dwgs.User") (width 0.1) (tstamp 08409bd6-5255-4b0b-b3dd-cb4f4e14b6ea))
  (fp_line (start -4.025 -8.65) (end 4.435 -17.11) (layer "Dwgs.User") (width 0.1) (tstamp 0e22d894-c4e8-486f-905a-b908e9adc80f))
  (fp_line (start -12.025 -8.65) (end -3.565 -17.11) (layer "Dwgs.User") (width 0.1) (tstamp 10d5ddf6-da0c-4b7e-8e44-485ac7b32b27))
  (fp_line (start -2.025 -8.65) (end 6.435 -17.11) (layer "Dwgs.User") (width 0.1) (tstamp 12c22797-b1a8-4f56-b864-82a490f94f67))
  (fp_line (start 7.975 -8.65) (end 16.435 -17.11) (layer "Dwgs.User") (width 0.1) (tstamp 14ee1732-34f9-405d-8e9f-efa8246ae2dd))
  (fp_line (start -19.565 -8.63) (end -19.565 -17.11) (layer "Dwgs.User") (width 0.1) (tstamp 17838c21-33e6-4306-9bc5-c8c32200d917))
  (fp_line (start 9.975 -8.65) (end 18.435 -17.11) (layer "Dwgs.User") (width 0.1) (tstamp 1cfb6c5b-401b-44d7-8b81-e3da8d8ff26d))
  (fp_line (start 5.975 -8.65) (end 14.435 -17.11) (layer "Dwgs.User") (width 0.1) (tstamp 1e0fcbce-b863-4f4f-939f-f4d8e8f248cf))
  (fp_line (start -4.915 8.42) (end -4.915 7.82) (layer "Dwgs.User") (width 0.1) (tstamp 1ffd9247-3701-4954-bba1-f2eefb607fe1))
  (fp_line (start -19.565 -9.11) (end -11.565 -17.11) (layer "Dwgs.User") (width 0.1) (tstamp 2d214131-a090-445b-adfb-db3aff738452))
  (fp_line (start 6.395 -8.48) (end 4.895 -8.48) (layer "Dwgs.User") (width 0.1) (tstamp 2fbcb155-236e-4e6b-8e29-58714ffa7461))
  (fp_line (start 6.395 -7.88) (end 4.895 -7.88) (layer "Dwgs.User") (width 0.1) (tstamp 42c0b3ac-3da7-49b5-b64d-ec709117f19f))
  (fp_line (start 11.975 -8.65) (end 19.565 -16.24) (layer "Dwgs.User") (width 0.1) (tstamp 5e98c4e6-f020-4416-82e7-c62a3dbe7c52))
  (fp_line (start 5.345 -7.88) (end 5.945 -8.48) (layer "Dwgs.User") (width 0.1) (tstamp 6defe6c4-1f09-402a-81c3-be4e056f479b))
  (fp_line (start -0.025 -8.65) (end 8.435 -17.11) (layer "Dwgs.User") (width 0.1) (tstamp 6e4513e9-017b-4218-b658-d3ef1241ecdc))
  (fp_line (start -19.565 -13.11) (end -15.565 -17.11) (layer "Dwgs.User") (width 0.1) (tstamp 70c5dec5-9f3c-4f43-b93c-49906fb80295))
  (fp_line (start -19.565 -15.11) (end -17.565 -17.11) (layer "Dwgs.User") (width 0.1) (tstamp 7c417b0a-c3d7-4037-a035-9ab04b6904cf))
  (fp_line (start -19.565 -11.11) (end -13.565 -17.11) (layer "Dwgs.User") (width 0.1) (tstamp 89e9d2b4-bec8-4fb9-9d6b-9d7a6979ae6d))
  (fp_line (start 3.975 -8.65) (end 12.435 -17.11) (layer "Dwgs.User") (width 0.1) (tstamp 8ae01ecc-31f4-4011-b337-266eca0cad0e))
  (fp_line (start -6.415 8.42) (end -6.415 7.82) (layer "Dwgs.User") (width 0.1) (tstamp 8b0d9f10-b7fd-4e0c-abca-2a598e12f576))
  (fp_line (start 17.975 -8.65) (end 19.565 -10.24) (layer "Dwgs.User") (width 0.1) (tstamp 910dc7c2-3184-4771-886c-f1b09cdcccad))
  (fp_line (start 13.975 -8.65) (end 19.565 -14.24) (layer "Dwgs.User") (width 0.1) (tstamp 98bf1f20-1b54-4a41-9285-78624fa506b4))
  (fp_line (start -10.025 -8.65) (end -1.565 -17.11) (layer "Dwgs.User") (width 0.1) (tstamp 9b9be336-78cf-4c32-a6aa-5783092d6e63))
  (fp_line (start -8.025 -8.65) (end 0.435 -17.11) (layer "Dwgs.User") (width 0.1) (tstamp a20028c0-10d3-4f41-94e2-7048f6a24063))
  (fp_line (start 4.895 -7.88) (end 4.895 -8.48) (layer "Dwgs.User") (width 0.1) (tstamp ab039239-8e6c-4e97-9cc2-ba3352d842f5))
  (fp_line (start 19.565 -17.11) (end -19.565 -17.11) (layer "Dwgs.User") (width 0.1) (tstamp ad880605-3e9e-4f57-89b2-d83eee38b4bc))
  (fp_line (start 15.975 -8.65) (end 19.565 -12.24) (layer "Dwgs.User") (width 0.1) (tstamp b58e9ce7-d350-4b06-bffc-5cefecf07a74))
  (fp_line (start -6.025 -8.65) (end 2.435 -17.11) (layer "Dwgs.User") (width 0.1) (tstamp bc6f917a-aa6c-47b3-94d3-4b53c65efc33))
  (fp_line (start -4.915 8.42) (end -6.415 8.42) (layer "Dwgs.User") (width 0.1) (tstamp c714c177-f82f-4ab2-9b04-0987fdb7a65e))
  (fp_line (start 19.565 -8.63) (end -19.565 -8.63) (layer "Dwgs.User") (width 0.1) (tstamp ca68697c-f12e-4c8f-b480-753e33f758f9))
  (fp_line (start -18.025 -8.65) (end -9.565 -17.11) (layer "Dwgs.User") (width 0.1) (tstamp caece222-8bab-437c-819f-28942ab4ce81))
  (fp_line (start 19.565 -8.63) (end 19.565 -17.11) (layer "Dwgs.User") (width 0.1) (tstamp cd6a722d-89cc-46e3-a834-643ae4ddb702))
  (fp_line (start 6.395 -7.88) (end 6.395 -8.48) (layer "Dwgs.User") (width 0.1) (tstamp da93d60d-4c98-4bbb-b8a1-bdcb54cf1c24))
  (fp_line (start -16.025 -8.65) (end -7.565 -17.11) (layer "Dwgs.User") (width 0.1) (tstamp dc6c8396-594d-4949-ba88-3bd774076fc6))
  (fp_line (start 1.975 -8.65) (end 10.435 -17.11) (layer "Dwgs.User") (width 0.1) (tstamp f578bdd0-1f18-42d5-b09f-d6562ed5504a))
  (fp_line (start -5.965 8.42) (end -5.365 7.82) (layer "Dwgs.User") (width 0.1) (tstamp f889832f-1bea-404e-9597-92f89ac7ae46))
  (fp_line (start 10.94 -17.36) (end 10.94 9.27) (layer "F.CrtYd") (width 0.05) (tstamp 6f92848a-1b9c-4484-aa1b-3ac0bebeb7ec))
  (fp_line (start -10.94 -17.36) (end -10.94 9.27) (layer "F.CrtYd") (width 0.05) (tstamp 843a8e48-6859-4da2-b035-afb029af90a5))
  (fp_line (start -10.94 9.27) (end 10.94 9.27) (layer "F.CrtYd") (width 0.05) (tstamp c3d04c02-e7a6-40e5-a8ed-9ffce19206c3))
  (fp_line (start -10.94 -17.36) (end 10.94 -17.36) (layer "F.CrtYd") (width 0.05) (tstamp d8ab13b4-2117-407b-b16b-fa5f92612f4b))
  (fp_line (start 9.565 -8.63) (end -9.565 -8.63) (layer "F.Fab") (width 0.1) (tstamp 0b18db78-8fe4-4a5c-b06d-91b33b27c3de))
  (fp_line (start -9.565 -8.63) (end -9.065 -8.13) (layer "F.Fab") (width 0.1) (tstamp 259dccb0-0604-44ba-8a16-e38fc9c8ffbf))
  (fp_line (start -9.565 -8.63) (end -9.565 -17.11) (layer "F.Fab") (width 0.1) (tstamp 25ac983d-4c92-4cda-8c6b-0934cd98201c))
  (fp_line (start 8.235 -8.25) (end 8.235 8.25) (layer "F.Fab") (width 0.1) (tstamp 50a4e8f0-3c24-4d0a-b68a-cfeb9d9f6e1e))
  (fp_line (start -9.565 9.02) (end -9.565 -7.63) (layer "F.Fab") (width 0.1) (tstamp 51877f00-c040-40ec-a90c-69d9aa5305d1))
  (fp_line (start 9.565 9.02) (end -9.565 9.02) (layer "F.Fab") (width 0.1) (tstamp 6290b356-d254-402e-9bef-d1cc3ec85116))
  (fp_line (start -8.265 8.25) (end 8.235 8.25) (layer "F.Fab") (width 0.1) (tstamp 663a9289-18ef-45fb-b9b0-3b970c872a59))
  (fp_line (start -8.265 -8.25) (end -8.265 8.25) (layer "F.Fab") (width 0.1) (tstamp c5bfe4fd-2e29-4e13-9435-ae06f362893b))
  (fp_line (start -9.065 -8.13) (end -9.565 -7.63) (layer "F.Fab") (width 0.1) (tstamp d1f0f10d-1c03-45a7-a7a2-ee174f49a5dd))
  (fp_line (start 9.565 -17.11) (end -9.565 -17.11) (layer "F.Fab") (width 0.1) (tstamp dfc50a59-5704-42f5-b1c5-ecffe8fbc55f))
  (fp_line (start -8.265 -8.25) (end 8.235 -8.25) (layer "F.Fab") (width 0.1) (tstamp e118bc28-3707-4d1f-bbdd-5bd811e0dc89))
  (fp_line (start 9.565 9.02) (end 9.565 -17.11) (layer "F.Fab") (width 0.1) (tstamp fcbf0ecc-0571-4459-85b9-b9d4ccfd68f9))
  (pad "" np_thru_hole circle (at -2.435 6.82) (size 1 1) (drill 1) (layers *.Cu *.Mask) (tstamp 32029b73-79fa-4267-b3c8-685eba42c30e))
  (pad "1" smd rect (at -9.42 -8.13) (size 2.54 0.65) (layers "F.Cu" "F.Paste" "F.Mask") (tstamp 34573e7c-0f8b-4fee-bfa0-2b88feeae21f))
  (pad "2" smd rect (at -9.42 -7.13) (size 2.54 0.65) (layers "F.Cu" "F.Paste" "F.Mask") (tstamp a4fc35fb-f9a2-4da2-b46f-b8e0399c0917))
  (pad "3" smd rect (at -9.42 -6.13) (size 2.54 0.65) (layers "F.Cu" "F.Paste" "F.Mask") (tstamp e9db1c58-8285-4cee-8251-b9301be9fc23))
  (pad "4" smd rect (at -9.42 -5.13) (size 2.54 0.65) (layers "F.Cu" "F.Paste" "F.Mask") (tstamp bbea3857-3f4c-4d57-8ac5-ea25ef4b0d98))
  (pad "5" smd rect (at -9.42 -4.13) (size 2.54 0.65) (layers "F.Cu" "F.Paste" "F.Mask") (tstamp 22ee52b2-9635-44c3-8710-63876c05efc2))
  (pad "6" smd rect (at -9.42 -3.13) (size 2.54 0.65) (layers "F.Cu" "F.Paste" "F.Mask") (tstamp 71bd10b9-1255-451b-8f2f-7c6c764fe8a4))
  (pad "7" smd rect (at -9.42 -2.13) (size 2.54 0.65) (layers "F.Cu" "F.Paste" "F.Mask") (tstamp ff34e2f4-171c-43d4-b668-dfb62ef2ddf9))
  (pad "8" smd rect (at -9.42 -1.13) (size 2.54 0.65) (layers "F.Cu" "F.Paste" "F.Mask") (tstamp 29b682cb-470a-451c-b662-b1f4b767b10a))
  (pad "9" smd rect (at -9.42 -0.13) (size 2.54 0.65) (layers "F.Cu" "F.Paste" "F.Mask") (tstamp 58c2160d-5fcc-45a0-b87a-a97d8c8681d0))
  (pad "10" smd rect (at -9.42 0.87) (size 2.54 0.65) (layers "F.Cu" "F.Paste" "F.Mask") (tstamp b2c08925-fddb-4116-9dbe-3953d105074d))
  (pad "11" smd rect (at -9.42 1.87) (size 2.54 0.65) (layers "F.Cu" "F.Paste" "F.Mask") (tstamp 6a3e1805-5d12-4d9d-9d03-2a776ad4543d))
  (pad "12" smd rect (at -9.42 2.87) (size 2.54 0.65) (layers "F.Cu" "F.Paste" "F.Mask") (tstamp 85f62071-f22b-4d3f-9184-825e58a07a22))
  (pad "13" smd rect (at -9.42 3.87) (size 2.54 0.65) (layers "F.Cu" "F.Paste" "F.Mask") (tstamp 4ddfab48-402a-4b4e-b5fd-2b4803987cd0))
  (pad "14" smd rect (at -9.42 4.87) (size 2.54 0.65) (layers "F.Cu" "F.Paste" "F.Mask") (tstamp c83268c6-1c92-44ce-8d21-f18d40c67a69))
  (pad "15" smd rect (at -9.42 5.87) (size 2.54 0.65) (layers "F.Cu" "F.Paste" "F.Mask") (tstamp 1fec4273-9046-484b-9527-5e6f5bef41ff))
  (pad "16" smd rect (at -9.42 6.87) (size 2.54 0.65) (layers "F.Cu" "F.Paste" "F.Mask") (tstamp ed5cb225-5900-461c-996d-112b4f63371a))
  (pad "17" smd rect (at -9.42 7.87) (size 2.54 0.65) (layers "F.Cu" "F.Paste" "F.Mask") (tstamp b8357023-40c0-4f02-8e2d-fc5989935efc))
  (pad "18" smd rect (at 9.42 7.87) (size 2.54 0.65) (layers "F.Cu" "F.Paste" "F.Mask") (tstamp e082441f-9b1a-40fe-8cea-30ad7970e35b))
  (pad "19" smd rect (at 9.42 6.87) (size 2.54 0.65) (layers "F.Cu" "F.Paste" "F.Mask") (tstamp db1b16c1-aaa5-4924-822d-3938b1207d04))
  (pad "20" smd rect (at 9.42 5.87) (size 2.54 0.65) (layers "F.Cu" "F.Paste" "F.Mask") (tstamp b0be9975-d73d-4584-99fa-1b4fbde677f6))
  (pad "21" smd rect (at 9.42 4.87) (size 2.54 0.65) (layers "F.Cu" "F.Paste" "F.Mask") (tstamp a188d3c9-49a1-44f8-90b5-4e902acf5b78))
  (pad "22" smd rect (at 9.42 3.87) (size 2.54 0.65) (layers "F.Cu" "F.Paste" "F.Mask") (tstamp 03f52c40-154e-4da6-8bc5-253dc5fb967a))
  (pad "23" smd rect (at 9.42 2.87) (size 2.54 0.65) (layers "F.Cu" "F.Paste" "F.Mask") (tstamp f96c38ad-3cd6-4285-9703-8cedd5863940))
  (pad "24" smd rect (at 9.42 1.87) (size 2.54 0.65) (layers "F.Cu" "F.Paste" "F.Mask") (tstamp 32a246e3-ff9d-41f3-9b18-433401c74255))
  (pad "25" smd rect (at 9.42 0.87) (size 2.54 0.65) (layers "F.Cu" "F.Paste" "F.Mask") (tstamp 90953f69-cb72-474c-a6a5-2b559e2a32e5))
  (pad "26" smd rect (at 9.42 -0.13) (size 2.54 0.65) (layers "F.Cu" "F.Paste" "F.Mask") (tstamp 04643e7b-33ba-43b3-b76b-3e354b597e22))
  (pad "27" smd rect (at 9.42 -1.13) (size 2.54 0.65) (layers "F.Cu" "F.Paste" "F.Mask") (tstamp 0d3df729-1c70-45c3-ac55-745df8ce987d))
  (pad "28" smd rect (at 9.42 -2.13) (size 2.54 0.65) (layers "F.Cu" "F.Paste" "F.Mask") (tstamp 5df8896f-2724-4195-b205-b71d579e0e65))
  (pad "29" smd rect (at 9.42 -3.13) (size 2.54 0.65) (layers "F.Cu" "F.Paste" "F.Mask") (tstamp 262145e9-7028-4971-a5c4-a7fdb207d4d6))
  (pad "30" smd rect (at 9.42 -4.13) (size 2.54 0.65) (layers "F.Cu" "F.Paste" "F.Mask") (tstamp 8f109f5a-4951-47a1-adf4-5fe1bb0df1f0))
  (pad "31" smd rect (at 9.42 -5.13) (size 2.54 0.65) (layers "F.Cu" "F.Paste" "F.Mask") (tstamp 90cbef7a-03f4-41bf-86d9-e9bc6634e8bc))
  (pad "32" smd rect (at 9.42 -6.13) (size 2.54 0.65) (layers "F.Cu" "F.Paste" "F.Mask") (tstamp 0501ce14-00bf-4211-b68e-98db3406618f))
  (pad "33" smd rect (at 9.42 -7.13) (size 2.54 0.65) (layers "F.Cu" "F.Paste" "F.Mask") (tstamp 864c1aee-648c-427b-a323-9ab88645344b))
  (pad "34" smd rect (at 9.42 -8.13) (size 2.54 0.65) (layers "F.Cu" "F.Paste" "F.Mask") (tstamp c62c53bb-ae51-4be6-b95b-cc59c0a7676b))
  (model "${KICAD6_3DMODEL_DIR}/RF_Module.3dshapes/DecaWave_DWM1001.wrl"
    (offset (xyz 0 0 0))
    (scale (xyz 1 1 1))
    (rotate (xyz 0 0 0))
  )
)
