(footprint "MountingHole_8.4mm_M8_Pad" (version 20211014) (generator pcbnew)
  (layer "F.Cu")
  (tedit 56D1B4CB)
  (descr "Mounting Hole 8.4mm, M8")
  (tags "mounting hole 8.4mm m8")
  (attr exclude_from_pos_files exclude_from_bom)
  (fp_text reference "REF**" (at 0 -9.4) (layer "F.SilkS")
    (effects (font (size 1 1) (thickness 0.15)))
    (tstamp af5d58ee-13b5-4e16-9074-4e34ada23fd6)
  )
  (fp_text value "MountingHole_8.4mm_M8_Pad" (at 0 9.4) (layer "F.Fab")
    (effects (font (size 1 1) (thickness 0.15)))
    (tstamp 3c84d210-6a42-464a-b27f-de0398b1d36f)
  )
  (fp_text user "${REFERENCE}" (at 0.3 0) (layer "F.Fab")
    (effects (font (size 1 1) (thickness 0.15)))
    (tstamp 76692bee-9f42-41b3-80d5-5ac404685d2b)
  )
  (fp_circle (center 0 0) (end 8.4 0) (layer "Cmts.User") (width 0.15) (fill none) (tstamp 2bab908d-c1c9-4546-8578-83028084943d))
  (fp_circle (center 0 0) (end 8.65 0) (layer "F.CrtYd") (width 0.05) (fill none) (tstamp b9d243de-b16c-4700-a17d-8b39753a4bbe))
  (pad "1" thru_hole circle (at 0 0) (size 16.8 16.8) (drill 8.4) (layers *.Cu *.Mask) (tstamp 56f54e54-d9a5-49bd-b95e-2821b78fea59))
)
