(footprint "MountingHole_2.7mm_M2.5_ISO7380" (version 20211014) (generator pcbnew)
  (layer "F.Cu")
  (tedit 56D1B4CB)
  (descr "Mounting Hole 2.7mm, no annular, M2.5, ISO7380")
  (tags "mounting hole 2.7mm no annular m2.5 iso7380")
  (attr exclude_from_pos_files exclude_from_bom)
  (fp_text reference "REF**" (at 0 -3.25) (layer "F.SilkS")
    (effects (font (size 1 1) (thickness 0.15)))
    (tstamp 61e6128e-1036-4aa6-96ad-20fb7f5aa5c6)
  )
  (fp_text value "MountingHole_2.7mm_M2.5_ISO7380" (at 0 3.25) (layer "F.Fab")
    (effects (font (size 1 1) (thickness 0.15)))
    (tstamp 582926f0-936d-4d30-850b-be7af83c8022)
  )
  (fp_text user "${REFERENCE}" (at 0.3 0) (layer "F.Fab")
    (effects (font (size 1 1) (thickness 0.15)))
    (tstamp b8a317ff-205c-4e13-adad-cf62a576385e)
  )
  (fp_circle (center 0 0) (end 2.25 0) (layer "Cmts.User") (width 0.15) (fill none) (tstamp 60d84555-c8f0-4f62-b94a-916493682999))
  (fp_circle (center 0 0) (end 2.5 0) (layer "F.CrtYd") (width 0.05) (fill none) (tstamp 559f7058-fb6d-4dd5-99d5-d40797027c94))
  (pad "" np_thru_hole circle (at 0 0) (size 2.7 2.7) (drill 2.7) (layers *.Cu *.Mask) (tstamp 0ef07372-6412-40a8-8e95-b55a9e482f20))
)
