(footprint "MountingHole_6.4mm_M6_Pad_Via" (version 20211014) (generator pcbnew)
  (layer "F.Cu")
  (tedit 56DDC4E6)
  (descr "Mounting Hole 6.4mm, M6")
  (tags "mounting hole 6.4mm m6")
  (attr exclude_from_pos_files exclude_from_bom)
  (fp_text reference "REF**" (at 0 -7.4) (layer "F.SilkS")
    (effects (font (size 1 1) (thickness 0.15)))
    (tstamp a3931eaf-c45a-47ce-8dbc-81c79839d968)
  )
  (fp_text value "MountingHole_6.4mm_M6_Pad_Via" (at 0 7.4) (layer "F.Fab")
    (effects (font (size 1 1) (thickness 0.15)))
    (tstamp 17d53a3e-706f-4df0-934a-818bd11f4be1)
  )
  (fp_text user "${REFERENCE}" (at 0.3 0) (layer "F.Fab")
    (effects (font (size 1 1) (thickness 0.15)))
    (tstamp 1c6bc3d0-d512-4305-95ab-38f518e2e25e)
  )
  (fp_circle (center 0 0) (end 6.4 0) (layer "Cmts.User") (width 0.15) (fill none) (tstamp f32f0450-8259-4f49-b9c2-6a4bd10753a4))
  (fp_circle (center 0 0) (end 6.65 0) (layer "F.CrtYd") (width 0.05) (fill none) (tstamp fe3c06de-a5e0-4ee4-9045-17614d328ff7))
  (pad "1" thru_hole circle (at 4.8 0) (size 0.9 0.9) (drill 0.6) (layers *.Cu *.Mask) (tstamp 0974291d-2e2f-4201-b464-7e205010d190))
  (pad "1" thru_hole circle (at 0 4.8) (size 0.9 0.9) (drill 0.6) (layers *.Cu *.Mask) (tstamp 1f196537-cf65-44fc-ba3f-af55bfc5ad67))
  (pad "1" thru_hole circle (at 0 0) (size 12.8 12.8) (drill 6.4) (layers *.Cu *.Mask) (tstamp 4ff2fa2a-680b-4563-bbe3-45fca1e717b6))
  (pad "1" thru_hole circle (at -4.8 0) (size 0.9 0.9) (drill 0.6) (layers *.Cu *.Mask) (tstamp 9b306de0-2b3d-4589-9caf-c9f3b31cbd57))
  (pad "1" thru_hole circle (at 0 -4.8) (size 0.9 0.9) (drill 0.6) (layers *.Cu *.Mask) (tstamp a93f8e98-9413-4cd7-ab44-0463bec9cb6f))
  (pad "1" thru_hole circle (at 3.394113 3.394113) (size 0.9 0.9) (drill 0.6) (layers *.Cu *.Mask) (tstamp b90d75a6-bb48-43b4-b51a-0d3dae4aad30))
  (pad "1" thru_hole circle (at -3.394113 -3.394113) (size 0.9 0.9) (drill 0.6) (layers *.Cu *.Mask) (tstamp c4f8eca4-ba74-410c-bdae-98f337a3ab97))
  (pad "1" thru_hole circle (at -3.394113 3.394113) (size 0.9 0.9) (drill 0.6) (layers *.Cu *.Mask) (tstamp e6ab07ce-1c1f-4e19-8088-0b9e52eda9db))
  (pad "1" thru_hole circle (at 3.394113 -3.394113) (size 0.9 0.9) (drill 0.6) (layers *.Cu *.Mask) (tstamp ec417ade-9c80-4593-9b67-cf38ab28de40))
)
