(footprint "MountingHole_3.2mm_M3_DIN965" (version 20211014) (generator pcbnew)
  (layer "F.Cu")
  (tedit 56D1B4CB)
  (descr "Mounting Hole 3.2mm, no annular, M3, DIN965")
  (tags "mounting hole 3.2mm no annular m3 din965")
  (attr exclude_from_pos_files exclude_from_bom)
  (fp_text reference "REF**" (at 0 -3.8) (layer "F.SilkS")
    (effects (font (size 1 1) (thickness 0.15)))
    (tstamp e903ac56-64b5-44a4-95ed-1e68017e762d)
  )
  (fp_text value "MountingHole_3.2mm_M3_DIN965" (at 0 3.8) (layer "F.Fab")
    (effects (font (size 1 1) (thickness 0.15)))
    (tstamp ccdec464-bda3-4c6d-8a0a-22799edfb16c)
  )
  (fp_text user "${REFERENCE}" (at 0.3 0) (layer "F.Fab")
    (effects (font (size 1 1) (thickness 0.15)))
    (tstamp a3f46c51-feaf-43f0-83c2-bc4a5f250dba)
  )
  (fp_circle (center 0 0) (end 2.8 0) (layer "Cmts.User") (width 0.15) (fill none) (tstamp 343138f6-c4cc-40a8-aef4-c0264aff787d))
  (fp_circle (center 0 0) (end 3.05 0) (layer "F.CrtYd") (width 0.05) (fill none) (tstamp 9a0653dc-7c8d-4d48-9613-a8ac7817a4cd))
  (pad "" np_thru_hole circle (at 0 0) (size 3.2 3.2) (drill 3.2) (layers *.Cu *.Mask) (tstamp 5d3afcd3-f6ea-4d0e-9488-d831089a0195))
)
