(footprint "MountingHole_2.2mm_M2" (version 20211014) (generator pcbnew)
  (layer "F.Cu")
  (tedit 56D1B4CB)
  (descr "Mounting Hole 2.2mm, no annular, M2")
  (tags "mounting hole 2.2mm no annular m2")
  (attr exclude_from_pos_files exclude_from_bom)
  (fp_text reference "REF**" (at 0 -3.2) (layer "F.SilkS")
    (effects (font (size 1 1) (thickness 0.15)))
    (tstamp 174aa71d-32eb-425b-bc46-17c76511a9b9)
  )
  (fp_text value "MountingHole_2.2mm_M2" (at 0 3.2) (layer "F.Fab")
    (effects (font (size 1 1) (thickness 0.15)))
    (tstamp 4f444c01-63b0-4f6e-b768-0e7008ac9efa)
  )
  (fp_text user "${REFERENCE}" (at 0.3 0) (layer "F.Fab")
    (effects (font (size 1 1) (thickness 0.15)))
    (tstamp cc498c72-ff76-4ab5-a24e-45217f63acc0)
  )
  (fp_circle (center 0 0) (end 2.2 0) (layer "Cmts.User") (width 0.15) (fill none) (tstamp 57596971-bf6b-460a-8efb-7b56e3190f0f))
  (fp_circle (center 0 0) (end 2.45 0) (layer "F.CrtYd") (width 0.05) (fill none) (tstamp 1045a914-6900-4873-af0b-93437f83494d))
  (pad "" np_thru_hole circle (at 0 0) (size 2.2 2.2) (drill 2.2) (layers *.Cu *.Mask) (tstamp 75b224f0-3010-4e8c-bf32-f95a770c96d9))
)
