(footprint "MountingHole_2.2mm_M2_ISO7380" (version 20211014) (generator pcbnew)
  (layer "F.Cu")
  (tedit 56D1B4CB)
  (descr "Mounting Hole 2.2mm, no annular, M2, ISO7380")
  (tags "mounting hole 2.2mm no annular m2 iso7380")
  (attr exclude_from_pos_files exclude_from_bom)
  (fp_text reference "REF**" (at 0 -2.75) (layer "F.SilkS")
    (effects (font (size 1 1) (thickness 0.15)))
    (tstamp c94bd31e-8a68-4981-9f63-12d1b6f44263)
  )
  (fp_text value "MountingHole_2.2mm_M2_ISO7380" (at 0 2.75) (layer "F.Fab")
    (effects (font (size 1 1) (thickness 0.15)))
    (tstamp 8d3f0d98-b3b6-40cd-a84f-76f3b0ca928d)
  )
  (fp_text user "${REFERENCE}" (at 0.3 0) (layer "F.Fab")
    (effects (font (size 1 1) (thickness 0.15)))
    (tstamp 916502c5-59d4-4a61-99b5-221ef82173d2)
  )
  (fp_circle (center 0 0) (end 1.75 0) (layer "Cmts.User") (width 0.15) (fill none) (tstamp 2076482f-5984-40bf-b495-5b56ebd2a603))
  (fp_circle (center 0 0) (end 2 0) (layer "F.CrtYd") (width 0.05) (fill none) (tstamp b82d5642-163e-464d-861f-1049d545b58f))
  (pad "" np_thru_hole circle (at 0 0) (size 2.2 2.2) (drill 2.2) (layers *.Cu *.Mask) (tstamp bce1b410-fc29-45f8-b312-db8dfd32de6f))
)
