(footprint "MountingHole_6mm" (version 20211014) (generator pcbnew)
  (layer "F.Cu")
  (tedit 56D1B4CB)
  (descr "Mounting Hole 6mm, no annular")
  (tags "mounting hole 6mm no annular")
  (attr exclude_from_pos_files exclude_from_bom)
  (fp_text reference "REF**" (at 0 -7) (layer "F.SilkS")
    (effects (font (size 1 1) (thickness 0.15)))
    (tstamp ab52e08a-3dfc-4fd1-a674-f88b281a2063)
  )
  (fp_text value "MountingHole_6mm" (at 0 7) (layer "F.Fab")
    (effects (font (size 1 1) (thickness 0.15)))
    (tstamp 7f505a95-af67-48fb-8c01-c8db3b29f452)
  )
  (fp_text user "${REFERENCE}" (at 0.3 0) (layer "F.Fab")
    (effects (font (size 1 1) (thickness 0.15)))
    (tstamp f4f512c4-9cd3-44e5-bf88-0e87bfe015ad)
  )
  (fp_circle (center 0 0) (end 6 0) (layer "Cmts.User") (width 0.15) (fill none) (tstamp fcab5323-26b5-4a4c-87ea-c36342b45846))
  (fp_circle (center 0 0) (end 6.25 0) (layer "F.CrtYd") (width 0.05) (fill none) (tstamp 2bd9b76c-7b5f-4cad-a226-cad89eef88ee))
  (pad "" np_thru_hole circle (at 0 0) (size 6 6) (drill 6) (layers *.Cu *.Mask) (tstamp 18c869f8-d03c-4bd8-90d4-3c875dcb1bbd))
)
