(footprint "MountingHole_3.7mm_Pad_TopBottom" (version 20211014) (generator pcbnew)
  (layer "F.Cu")
  (tedit 56D1B4CB)
  (descr "Mounting Hole 3.7mm")
  (tags "mounting hole 3.7mm")
  (attr exclude_from_pos_files exclude_from_bom)
  (fp_text reference "REF**" (at 0 -4.7) (layer "F.SilkS")
    (effects (font (size 1 1) (thickness 0.15)))
    (tstamp a6f9b966-1432-44b3-9322-693947a8a212)
  )
  (fp_text value "MountingHole_3.7mm_Pad_TopBottom" (at 0 4.7) (layer "F.Fab")
    (effects (font (size 1 1) (thickness 0.15)))
    (tstamp f72c18cc-6579-4cbf-9f22-43a41c0f9012)
  )
  (fp_text user "${REFERENCE}" (at 0.3 0) (layer "F.Fab")
    (effects (font (size 1 1) (thickness 0.15)))
    (tstamp 4d66b337-0099-4ca2-91ca-304ce1478bf5)
  )
  (fp_circle (center 0 0) (end 3.7 0) (layer "Cmts.User") (width 0.15) (fill none) (tstamp 4c45a83a-9ce8-434c-bd4c-739f5b4da62b))
  (fp_circle (center 0 0) (end 3.95 0) (layer "F.CrtYd") (width 0.05) (fill none) (tstamp 0bc8ed65-b408-4f48-bf6b-53d873aaea58))
  (pad "1" connect circle (at 0 0) (size 7.4 7.4) (layers "B.Cu" "B.Mask") (tstamp 634a43d2-e139-4086-a1f9-f5dbc78365af))
  (pad "1" connect circle (at 0 0) (size 7.4 7.4) (layers "F.Cu" "F.Mask") (tstamp a0ff157f-a730-4db2-8322-4cc95c397a69))
  (pad "1" thru_hole circle (at 0 0) (size 4.1 4.1) (drill 3.7) (layers *.Cu *.Mask) (tstamp d3203a93-ec60-495f-9292-db393eda6c0d))
)
